2016-03-03 12:39:22,327 - INFO - Log line content A
2016-03-03 12:39:22,330 - ERROR - Log line content B
2016-03-03 12:39:42,484 - WARNING - Log line content C
2016-03-03 12:39:42,484 - FATAL - Log line content D
2016-03-03 12:39:42,528 - INFO - Log line content A
